%YAML 1.1
%TAG !u! tag:unity3d.com,2011:
--- !u!162 &1
EditorUserSettings:
  m_ObjectHideFlags: 0
  serializedVersion: 4
  m_ConfigSettings:
    RecentlyUsedSceneGuid-0:
      value: 05060c5354575809095d582645775a1646151b7b7a2c70347e7d4e62bae4636d
      flags: 0
    RecentlyUsedSceneGuid-1:
      value: 02080d5f52040a0a5e5f5d2146770f45124f1c78747171367e2f4961e3e4676a
      flags: 0
    RecentlyUsedSceneGuid-2:
      value: 55525053560d5f085e59587640775947144f1d7b7c79206778711e30b6b6316f
      flags: 0
    RecentlyUsedSceneGuid-3:
      value: 5403055054030f0f080a5a7746770a14104e1d7b75797f3374784463bbe53660
      flags: 0
    RecentlyUsedSceneGuid-4:
      value: 02570c0307515e0f5f0a5e7712760844404f417d2f2d75667f7f1f6be1b5626f
      flags: 0
    RecentlyUsedSceneGuid-5:
      value: 07555604530c5e595c0d0a77147a5a44464f40732f7f256479701b32e7b43669
      flags: 0
    RecentlyUsedSceneGuid-6:
      value: 0508055251575f0e585909774222084410161b7f2d7920312b7c4e32e7b93661
      flags: 0
    RecentlyUsedSceneGuid-7:
      value: 5500055304575e0f0c59582349220e44134f1b7e2e7f7f66292d4a6bb2b0313d
      flags: 0
    RecentlyUsedSceneGuid-8:
      value: 5a5757560101590a5d0c0e24427b5d44434e4c7a7b7a23677f2b4565b7b5353a
      flags: 0
    RecentlyUsedSceneGuid-9:
      value: 00090c070703515f595a5f2616740944144f402e7f7925322c2d4563bae53569
      flags: 0
    UnityRemoteDevice:
      value: 225f4d46245b0d4902070862342649191512
      flags: 0
    vcSharedLogLevel:
      value: 0d5e400f0650
      flags: 0
  m_VCAutomaticAdd: 1
  m_VCDebugCom: 0
  m_VCDebugCmd: 0
  m_VCDebugOut: 0
  m_SemanticMergeMode: 2
  m_DesiredImportWorkerCount: 2
  m_StandbyImportWorkerCount: 2
  m_IdleImportWorkerShutdownDelay: 60000
  m_VCShowFailedCheckout: 1
  m_VCOverwriteFailedCheckoutAssets: 1
  m_VCProjectOverlayIcons: 1
  m_VCHierarchyOverlayIcons: 1
  m_VCOtherOverlayIcons: 1
  m_VCAllowAsyncUpdate: 1
  m_ArtifactGarbageCollection: 1
